<?xml version="1.0" encoding="utf-8"?>
<!DOCTYPE svg PUBLIC "-//W3C//DTD SVG 1.1//EN" "http://www.w3.org/Graphics/SVG/1.1/DTD/svg11.dtd">
<svg width="120" viewBox="0 0 156 50" xmlns="http://www.w3.org/2000/svg" xmlns:xlink="http://www.w3.org/1999/xlink">
    <defs><circle id="c" cy="25" r="24" fill="#60a5f3"/></defs>
    <use x="25" xlink:href="#c" />
    <use x="78" xlink:href="#c" />
    <use x="131" xlink:href="#c" />
</svg>


